Exploring the Gap Minder Dataset · @rjmuwanga
…
## Rows: 1,704
## Columns: 6
## $ country   <fct> "Afghanistan", "Afghanistan", "Afghanistan", "Afghanistan", …
## $ continent <fct> Asia, Asia, Asia, Asia, Asia, Asia, Asia, Asia, Asia, Asia, …
## $ year      <int> 1952, 1957, 1962, 1967, 1972, 1977, 1982, 1987, 1992, 1997, …
## $ lifeExp   <dbl> 28.801, 30.332, 31.997, 34.020, 36.088, 38.438, 39.854, 40.8…
## $ pop       <int> 8425333, 9240934, 10267083, 11537966, 13079460, 14880372, 12…
## $ gdpPercap <dbl> 779.4453, 820.8530, 853.1007, 836.1971, 739.9811, 786.1134, …

gapminder %>% 
  group_by(country) %>%
  summarize('Avg.Pop' = mean(pop))

## # A tibble: 142 × 2
##    country       Avg.Pop
##    <fct>           <dbl>
##  1 Afghanistan 15823715.
##  2 Albania      2580249.
##  3 Algeria     19875406.
##  4 Angola       7309390.
##  5 Argentina   28602240.
##  6 Australia   14649312.
##  7 Austria      7583298.
##  8 Bahrain       373913.
##  9 Bangladesh  90755395.
## 10 Belgium      9725119.
## # … with 132 more rows
…
